\babel@toc {italian}{}
\babel@toc {italian}{}
\contentsline {section}{\numberline {1}Distribuzione variabili}{2}{section.1}% 
\contentsline {section}{\numberline {2}Correlazione variabili e cluster di dati}{3}{section.2}% 
