\relax 
\providecommand\hyper@newdestlabel[2]{}
\providecommand\HyperFirstAtBeginDocument{\AtBeginDocument}
\HyperFirstAtBeginDocument{\ifx\hyper@anchor\@undefined
\global\let\oldcontentsline\contentsline
\gdef\contentsline#1#2#3#4{\oldcontentsline{#1}{#2}{#3}}
\global\let\oldnewlabel\newlabel
\gdef\newlabel#1#2{\newlabelxx{#1}#2}
\gdef\newlabelxx#1#2#3#4#5#6{\oldnewlabel{#1}{{#2}{#3}}}
\AtEndDocument{\ifx\hyper@anchor\@undefined
\let\contentsline\oldcontentsline
\let\newlabel\oldnewlabel
\fi}
\fi}
\global\let\hyper@last\relax 
\gdef\HyperFirstAtBeginDocument#1{#1}
\providecommand\HyField@AuxAddToFields[1]{}
\providecommand\HyField@AuxAddToCoFields[2]{}
\babel@aux{italian}{}
\babel@aux{italian}{}
\@writefile{lof}{\contentsline {figure}{\numberline {1}{\ignorespaces distribuzione delle variabili}}{2}{figure.1}\protected@file@percent }
\newlabel{fig:distribuzione}{{1}{2}{distribuzione delle variabili}{figure.1}{}}
\@writefile{toc}{\contentsline {section}{\numberline {1}Distribuzione variabili}{2}{section.1}\protected@file@percent }
\@writefile{lof}{\contentsline {figure}{\numberline {2}{\ignorespaces correlazione delle variabili OD280/OD315 dil. e OD280/OD315 flav. }}{3}{figure.2}\protected@file@percent }
\newlabel{fig:correlazione}{{2}{3}{correlazione delle variabili OD280/OD315 dil. e OD280/OD315 flav}{figure.2}{}}
\@writefile{toc}{\contentsline {section}{\numberline {2}Correlazione variabili e cluster di dati}{3}{section.2}\protected@file@percent }
\@writefile{lof}{\contentsline {figure}{\numberline {3}{\ignorespaces grafico variabili Flavonoidi e Proantociani }}{4}{figure.3}\protected@file@percent }
\newlabel{fig:cluster}{{3}{4}{grafico variabili Flavonoidi e Proantociani}{figure.3}{}}
\@writefile{lof}{\contentsline {figure}{\numberline {4}{\ignorespaces grafico variabili Flavonoidi e Nanoflav. }}{5}{figure.4}\protected@file@percent }
\newlabel{fig:cluster2}{{4}{5}{grafico variabili Flavonoidi e Nanoflav}{figure.4}{}}
\@writefile{lof}{\contentsline {figure}{\numberline {5}{\ignorespaces grafico variabili Fenoli-tot e Flavonoidi }}{6}{figure.5}\protected@file@percent }
\newlabel{fig:cluster3}{{5}{6}{grafico variabili Fenoli-tot e Flavonoidi}{figure.5}{}}
